%!PS-Adobe-2.0
%%Creator: Karl Linden <karl.j.linden@gmail.com>
%%Title: homework8.ps
%%BoundingBox: -10 -7 10 7
%%DocumentPaperSizes: a4
%%CreationDate: 16-Nov-15
%%EndComments

% Returns a point that lies on a factor in-between two points.
/mix { % factor xfrom yfrom xto yto
    /yto exch def
    /xto exch def
    /yfrom exch def
    /xfrom exch def
    /factor exch def

    xfrom xto xfrom sub factor mul add
    yfrom yto yfrom sub factor mul add
} bind def

/arrow { % xfrom yfrom xto yto
    /yto exch def
    /xto exch def
    /yfrom exch def
    /xfrom exch def
    /dist xto xfrom sub dup mul yto yfrom sub dup mul add sqrt def
    /angle yto yfrom sub xto xfrom sub atan def

    gsave
        % Translate coordinates to simplify operation.
        xfrom yfrom translate
        angle rotate

        % Draws an arrow head using three Bezier curves that touch the tip
        % (bx,by) and (bx,-by) with the control point being a point on a
        % fixed ratio to the center of the triangle.
        /size .5 def
        /factor .3 def % the of the control point to the center
        /bx dist size 3 sqrt 2 div mul sub def
        /by size 2 div def
        /cx dist size 2 div sub def
        /cy 0 def
        factor dist 0 cx cy mix
        /c1y exch def
        /c1x exch def 
        factor bx by cx cy mix
        /c2y exch def
        /c2x exch def 
        factor bx by neg cx cy mix
        /c3y exch def
        /c3x exch def 
        dist 0 moveto
        c1x c1y c2x c2y bx by curveto
        c2x c2y c3x c3y bx by neg curveto
        c3x c3y c1x c1y dist 0 curveto
        fill

        % Draw the line.
        0 0 moveto
        cx cy lineto
        stroke
    grestore
} bind def

/ytics { % start stepsize finish
    {
        -.2
        exch
        moveto
        .4 0 rlineto
    } for
    stroke
} bind def

/xtics { % start stepsize finish
    {
        -.2 moveto
        0 .4 rlineto
    } for
    stroke
} bind def

/slope { % x y -> slope (as an angle)
    /y exch def
    /x exch def

    x 0 ne y 0 ne and {
        y y y mul sub 2 x y mul mul div
        1 atan
    } {
        90
    } ifelse
} bind def

/f { % C x -> f(x)
    1 dict begin
        /x exch def
        /C exch def
        x 0 ne {
            1 C x abs sqrt div add
        } {
            0
        } ifelse
    end
} bind def

/slopefield { % xstart ystart xend yend xstep ystep
    /ystep exch def
    /xstep exch def
    /yend exch def
    /xend exch def
    /ystart exch def
    /xstart exch def

    /half .2 def

    xstart xstep xend {
        /x exch def
        ystart ystep yend {
            /y exch def
            x y slope
            /angle exch def
            x half angle cos mul sub y half angle sin mul sub moveto
            x half angle cos mul add y half angle sin mul add lineto
        } for
    } for
    stroke
} bind def

0.05 setlinewidth

/xmin -10 def
/xmax 10 def
/ymin -7 def
/ymax 7 def

xmin 0 xmax 0 arrow
0 ymin 0 ymax arrow

xmin 1 add 1 -1 xtics
1 1 xmax 1 sub xtics
ymin 1 add 1 -1 ytics
1 1 ymax 1 sub ytics

1 1 xmax 1 sub ymax 1 sub 1 1 slopefield
xmin 1 add 1 1 ymax 1 sub 1 1 slopefield
xmin 1 add ymin 1 add -1 -1 1 1 slopefield
1 ymin 1 add xmax 1 sub -1 1 1 slopefield

/n 10000 def
/margin .5 def
/dx xmax xmin sub 2 margin mul sub n div def

2 setlinejoin

/plot { % C
    /C exch def
    /x xmin margin add dx sub def
    {
        % Loop until in range.
        {
            /y C x f def
            /x x dx add def
            x xmax margin sub ge {exit} if

            % Is it in range?
            y ymax margin sub le y ymin margin add ge and {
                x y moveto
                exit
            } if
        } loop

        % Loop until out of range.
        {
            /y C x f def
            /x x dx add def
            x xmax margin sub ge {exit} if

            % Is it out of range?
            y ymax margin sub le y ymin margin add ge and {
                x y lineto
            } {exit} ifelse
        } loop

        x xmax margin sub ge {exit} if
    } loop
    stroke
} def

-1 plot

[.1] 0 setdash
[-9 -4 2 6] {
    plot
} forall

showpage
